Movielens
…
2.1 Per-movie stats

# aggregate ratings by movie, computing mean rating and number of ratings
# hint: use the n() function for easy counting within a group
ratings %>%
  group_by(movie_id) %>%
  summarize(avg_rating = mean(rating), num_of_ratings = n()) 

## # A tibble: 10,677 × 3
##    movie_id avg_rating num_of_ratings
##       <dbl>      <dbl>          <int>
##  1        1       3.93          26449
##  2        2       3.21          12032
##  3        3       3.15           7790
##  4        4       2.86           1764
##  5        5       3.08           7135
##  6        6       3.81          13696
##  7        7       3.37           8064
##  8        8       3.13            899
##  9        9       3.00           2518
## 10       10       3.43          16918
## # ℹ 10,667 more rows
…
3 Per-user stats

# aggregate ratings by user, computing mean and number of ratings
ratings %>% 
  group_by(user_id) %>% 
  summarize(avg_rating = mean(rating), num_of_ratings_per_user = n())

## # A tibble: 69,878 × 3
##    user_id avg_rating num_of_ratings_per_user
##      <dbl>      <dbl>                   <int>
##  1       1       5                         22
##  2       2       3.2                       20
##  3       3       3.94                      33
##  4       4       4.03                      38
##  5       5       3.85                      87
##  6       6       3.93                      42
##  7       7       3.93                     109
##  8       8       3.40                     800
##  9       9       4                         24
## 10      10       3.81                     123
## # ℹ 69,868 more rows
…
